{
  "name": "myAppBlank",
  "app_id": "",
  "type": "ionic-angular",
  "integrations": {
    "cordova": {}
  },
  "proxies": [
    {
      "path": "/kemdikbud",
      "proxyUrl": "http://jendela.data.kemdikbud.go.id/api/index.php"
    }
  ]
}
